[
    {
        "name": "CollectionRights",
        "policy": "OR('outlet-franchise-com.member', 'dealer-franchise-com.member')",
        "requiredPeerCount": 1,
        "maxPeerCount": 1,
        "blockToLive": 1000000,
        "memberOnlyRead": true
    }
]